^D:\FVTCASSINGMENTS\SPRING 2022\C++\SP.LAB2-PLAYINGCARDS\SP.LAB2-PLAYINGCARDS\MAIN.CPP
D:\FVTCASSINGMENTS\SPRING 2022\C++\SP.LAB2-PLAYINGCARDS\SP.LAB2-PLAYINGCARDS\DEBUG\VC142.PDB
D:\FVTCASSINGMENTS\SPRING 2022\C++\SP.LAB2-PLAYINGCARDS\SP.LAB2-PLAYINGCARDS\DEBUG\VC142.IDB
D:\FVTCASSINGMENTS\SPRING 2022\C++\SP.LAB2-PLAYINGCARDS\SP.LAB2-PLAYINGCARDS\DEBUG\MAIN.OBJ
